COMPSCIX 415.2 Homework 5/Midterm
…
1.

During what time period is this data from?

txhousing %>% arrange(year, month)

## # A tibble: 8,602 x 9
##    city           year month sales   volume median listings inventory  date
##    <chr>         <int> <int> <dbl>    <dbl>  <dbl>    <dbl>     <dbl> <dbl>
##  1 Abilene        2000     1    72   5.38e6  71400      701       6.3  2000
##  2 Amarillo       2000     1   102   8.86e6  80000      972       5.3  2000
##  3 Arlington      2000     1   241   2.62e7  94000     1417       3.7  2000
##  4 Austin         2000     1  1025   1.73e8 133700     3084       2    2000
##  5 Bay Area       2000     1   244   2.93e7 100700     1766       4.3  2000
##  6 Beaumont       2000     1    97   1.01e7  82100      876       6.1  2000
##  7 Brazoria Cou~  2000     1    55   5.24e6  74400      512       5.9  2000
##  8 Brownsville    2000     1    NA  NA          NA      400       9.1  2000
##  9 Bryan-Colleg~  2000     1    61   5.62e6  77900      498       4.2  2000
## 10 Collin County  2000     1   464   9.48e7 158700     2844       4    2000
## # ... with 8,592 more rows

txhousing %>% arrange(desc(year), desc(month))

## # A tibble: 8,602 x 9
##    city           year month sales   volume median listings inventory  date
##    <chr>         <int> <int> <dbl>    <dbl>  <dbl>    <dbl>     <dbl> <dbl>
##  1 Abilene        2015     7   268   4.58e7 148700      986       5   2016.
##  2 Amarillo       2015     7   354   6.23e7 149700     1247       4.5 2016.
##  3 Arlington      2015     7   605   1.25e8 178900      752       1.7 2016.
##  4 Austin         2015     7  3466   1.15e9 264600     7913       3   2016.
##  5 Bay Area       2015     7   849   1.97e8 200800     2144       3.2 2016.
##  6 Beaumont       2015     7   318   5.29e7 139300     1561       6.4 2016.
##  7 Brazoria Cou~  2015     7    NA  NA          NA       NA      NA   2016.
##  8 Brownsville    2015     7    NA  NA          NA       NA      NA   2016.
##  9 Bryan-Colleg~  2015     7   414   9.04e7 190700      894       3.3 2016.
## 10 Collin County  2015     7  1861   6.14e8 292600     2809       2.1 2016.
## # ... with 8,592 more rows

The time period of collected data was from Jan 2000 to July 2015.

2.

How many cities are represented?

txhousing %>% distinct(city)

## # A tibble: 46 x 1
##    city                 
##    <chr>                
##  1 Abilene              
##  2 Amarillo             
##  3 Arlington            
##  4 Austin               
##  5 Bay Area             
##  6 Beaumont             
##  7 Brazoria County      
##  8 Brownsville          
##  9 Bryan-College Station
## 10 Collin County        
## # ... with 36 more rows

There are 46 cities listed.

3.

Which city, month and year had the highest number of sales?

txhousing %>% arrange(desc(sales))

## # A tibble: 8,602 x 9
##    city     year month sales     volume median listings inventory  date
##    <chr>   <int> <int> <dbl>      <dbl>  <dbl>    <dbl>     <dbl> <dbl>
##  1 Houston  2015     7  8945 2568156780 217600    23875       3.4 2016.
##  2 Houston  2006     6  8628 1795898108 155200    36281       5.6 2006.
##  3 Houston  2013     7  8468 2168720825 187800    21497       3.3 2014.
##  4 Houston  2015     6  8449 2490238594 222400    22311       3.2 2015.
##  5 Houston  2013     5  8439 2121508529 186100    20526       3.3 2013.
##  6 Houston  2014     6  8391 2342443127 211200    19725       2.9 2014.
##  7 Houston  2014     7  8391 2278932511 199700    20214       3   2014.
##  8 Houston  2014     8  8167 2195184825 202400    20007       2.9 2015.
##  9 Houston  2013     8  8155 2083377894 186700    21366       3.3 2014.
## 10 Houston  2006     5  8040 1602621368 151200    35398       5.5 2006.
## # ... with 8,592 more rows
…
5.

What proportion of sales is missing for each city?

txhousing %>% select(city, sales) %>% group_by(city) %>% mutate(total_city_observations = n())  %>% mutate(missing_sales = sum(is.na(sales))) %>% mutate(proportion_sales_missing = missing_sales/total_city_observations) %>% select(city, total_city_observations, missing_sales, proportion_sales_missing) %>% distinct()

## # A tibble: 46 x 4
## # Groups:   city [46]
##    city            total_city_observati~ missing_sales proportion_sales_mi~
##    <chr>                           <int>         <int>                <dbl>
##  1 Abilene                           187             0               0     
##  2 Amarillo                          187             0               0     
##  3 Arlington                         187             0               0     
##  4 Austin                            187             0               0     
##  5 Bay Area                          187             0               0     
##  6 Beaumont                          187             0               0     
##  7 Brazoria County                   187            14               0.0749
##  8 Brownsville                       187             2               0.0107
##  9 Bryan-College ~                   187             0               0     
## 10 Collin County                     187             0               0     
## # ... with 36 more rows
…
