COMPSCIX 415.2 Homework 7
…
Now fit a linear regression model using GrLivArea, OverallQual, and Neighborhood as the features. Dont forget to look at data_description.txt to understand what these variables mean. Ask yourself these questions before fitting the model:

 What kind of relationship will these features have with our target? SalePrice may increase with increasing GrLivArea (which is above ground living area square feet). SalePrice may also increase with OverallQual. The relationship between SalePrice and Neighborhood will be harder to identify, but generally a nicer neighborhood would correlate with higher SalePrice.

 Can the relationship be estimated linearly? Potentially, but the relationship may not actually be linear.

 Are these good features, given the problem we are trying to solve? These features may correlate with SalePrice.

After fitting the model, output the coefficients and the R-squared using the broom package.

train_data <- train_data %>% mutate(neighborhood_factor = factor(train_data$Neighborhood))
saleprice_lm <- lm(formula = SalePrice ~ GrLivArea + OverallQual + Neighborhood, data = train_data)
tidy(saleprice_lm)

## # A tibble: 27 x 5
##    term                estimate std.error statistic  p.value
##    <chr>                  <dbl>     <dbl>     <dbl>    <dbl>
##  1 (Intercept)         -34829.   11541.       -3.02 2.59e- 3
##  2 GrLivArea               55.6      2.50     22.2  2.38e-94
##  3 OverallQual          20951.    1162.       18.0  1.24e-65
##  4 NeighborhoodBlueste -30753.   27697.       -1.11 2.67e- 1
##  5 NeighborhoodBrDale  -43359.   12979.       -3.34 8.57e- 4
##  6 NeighborhoodBrkSide -13025.   10450.       -1.25 2.13e- 1
##  7 NeighborhoodClearCr  24576.   11570.        2.12 3.38e- 2
##  8 NeighborhoodCollgCr  11414.    9497.        1.20 2.30e- 1
##  9 NeighborhoodCrawfor  14444.   10502.        1.38 1.69e- 1
## 10 NeighborhoodEdwards -17843.    9986.       -1.79 7.42e- 2
## # ... with 17 more rows
…
