COMPSCIX 415.2 Homework 4
…
library(tidyverse)
library(nycflights13)

5.6.7 Exercises

2.

Come up with another approach that will give you the same output as not_cancelled %>% count(dest) and not_cancelled %>% count(tailnum, wt = distance) (without using count()).

not_cancelled <- flights %>% filter(!is.na(dep_delay), !is.na(arr_delay))
#number of not_cancelled flights instances by dest
#not_cancelled %>% count(dest)
not_cancelled %>% group_by(dest) %>% summarize(n = n())

## # A tibble: 104 x 2
##    dest      n
##    <chr> <int>
##  1 ABQ     254
##  2 ACK     264
##  3 ALB     418
##  4 ANC       8
##  5 ATL   16837
##  6 AUS    2411
##  7 AVL     261
##  8 BDL     412
##  9 BGR     358
## 10 BHM     269
## # ... with 94 more rows

#total distance each not_cancelled flight flew by tailnum
#not_cancelled %>% count(tailnum, wt = distance)
not_cancelled %>% group_by(tailnum) %>% summarize(n = sum(distance))

## # A tibble: 4,037 x 2
##    tailnum      n
##    <chr>    <dbl>
##  1 D942DN    3418
##  2 N0EGMQ  239143
##  3 N10156  109664
##  4 N102UW   25722
##  5 N103US   24619
##  6 N104UW   24616
##  7 N10575  139903
##  8 N105UW   23618
##  9 N107US   21677
## 10 N108UW   32070
## # ... with 4,027 more rows
…
6.

What does the sort argument to count() do. When might you use it?

not_cancelled %>% count(dest, sort = TRUE)

## # A tibble: 104 x 2
##    dest      n
##    <chr> <int>
##  1 ATL   16837
##  2 ORD   16566
##  3 LAX   16026
##  4 BOS   15022
##  5 MCO   13967
##  6 CLT   13674
##  7 SFO   13173
##  8 FLL   11897
##  9 MIA   11593
## 10 DCA    9111
## # ... with 94 more rows
…
